Experimentação Florestal (FL03034 - EF)
…
--

.pull-right-10[
.font90[

```r
library(readr)
(data <- 
    read_csv("data/DIC-Pimentel-Gomes-2002-Org.csv", 
             col_types = "ffd"))
```

```
## # A tibble: 40 × 3
##    Progenie Rep       d
##    <fct>    <fct> <dbl>
##  1 P1       R1     16  
##  2 P1       R2     16.4
##  3 P1       R3     14.1
##  4 P1       R4     11.7
##  5 P2       R1     14.3
##  6 P2       R2     14.5
##  7 P2       R3     13.8
##  8 P2       R4     14.6
##  9 P3       R1     14.7
## 10 P3       R2     15.6
## # ℹ 30 more rows
```
…
